<svg width="32" height="42" viewBox="0 0 32 42" fill="none" xmlns="http://www.w3.org/2000/svg">
<path d="M16 41.2191C24.2843 41.2191 31 40.3236 31 39.2191C31 38.1145 24.2843 37.2191 16 37.2191C7.71573 37.2191 1 38.1145 1 39.2191C1 40.3236 7.71573 41.2191 16 41.2191Z" fill="#E5E5E5"/>
<path d="M16.0001 25.4289C21.2927 25.4289 25.5832 21.1383 25.5832 15.8457C25.5832 10.553 21.2927 6.26251 16.0001 6.26251C10.7074 6.26251 6.41687 10.553 6.41687 15.8457C6.41687 21.1383 10.7074 25.4289 16.0001 25.4289Z" fill="white"/>
<path d="M16 19C17.6569 19 19 17.6569 19 16C19 14.3431 17.6569 13 16 13C14.3431 13 13 14.3431 13 16C13 17.6569 14.3431 19 16 19Z" fill="#0F3972"/>
<path d="M16 0.219055C7.36655 0.219055 0.373413 7.21219 0.373413 15.8457C0.373413 22.6661 10.158 33.6882 14.2446 38.005C15.1943 39.0122 16.8058 39.0122 17.7555 38.005C21.842 33.717 31.6267 22.6949 31.6267 15.8457C31.6267 7.21219 24.6335 0.219055 16 0.219055ZM16 24.508C11.1941 24.508 7.33777 20.6229 7.33777 15.8457C7.33777 11.0685 11.2228 7.18341 16 7.18341C20.806 7.18341 24.6623 11.0685 24.6623 15.8457C24.6623 20.6229 20.806 24.508 16 24.508Z" fill="#0F3972"/>
</svg>
