<?xml version="1.0" encoding="utf-8"?>
<!-- Generator: Adobe Illustrator 23.0.4, SVG Export Plug-In . SVG Version: 6.00 Build 0)  -->
<svg version="1.1" id="Layer_1" xmlns="http://www.w3.org/2000/svg" xmlns:xlink="http://www.w3.org/1999/xlink" x="0px" y="0px"
	 viewBox="0 0 161 110" style="enable-background:new 0 0 161 110;" xml:space="preserve">
<style type="text/css">
	.st0{fill:none;stroke:#003869;stroke-width:3;stroke-linecap:round;stroke-linejoin:round;}
	.st1{fill:none;stroke:#003869;stroke-width:3;stroke-miterlimit:10;}
	.st2{fill:none;stroke:#003869;stroke-width:3.5301;stroke-linecap:round;stroke-linejoin:round;}
	.st3{fill:none;stroke:#003869;stroke-width:2.6832;stroke-linecap:round;stroke-linejoin:round;}
	.st4{fill:none;stroke:#003869;stroke-width:3.3843;stroke-linecap:round;stroke-linejoin:round;}
</style>
<g>
	<path class="st0" d="M-159.1-132.6l-62.7,0.2l0,9.1l62.7-0.2L-159.1-132.6z"/>
	<path class="st0" d="M-231.1-155.5l0.1,43.1c0,1.4,1.1,2.5,2.5,2.5l4.1,0c1.4,0,2.5-1.1,2.5-2.5l-0.1-43.1c0-1.4-1.1-2.5-2.5-2.5
		l-4.1,0C-229.9-158.1-231.1-156.9-231.1-155.5z"/>
	<path class="st0" d="M-150-137.5l0.1,24.9c0,0.7-0.3,1.3-0.7,1.8c-0.5,0.5-1.1,0.7-1.8,0.7l-4.1,0c-1.4,0-2.5-0.5-2.5-2.5
		l-0.1-24.9c0-2.1,1.1-2.5,2.5-2.5l4.1,0c0.7,0,1.3,0.3,1.8,0.7C-150.3-138.8-150-138.2-150-137.5z"/>
	<path class="st0" d="M-219.3-132.4l16.7-0.1c1.4,0,2.5-1.1,2.5-2.5l0-2.4c0-1.4-1.1-2.5-2.5-2.5l-16.7,0.1c-1.4,0-2.5,1.1-2.5,2.5
		l0,2.4C-221.8-133.5-220.7-132.4-219.3-132.4z"/>
	<path class="st0" d="M-175.2-113.2l0-10.2"/>
	<path class="st0" d="M-170.1-113.2l-10.2,0"/>
	<path class="st0" d="M-175.2-132.5l0-13"/>
	<path class="st0" d="M-169.8-162.1l-11.1,0l-2,16.5l15.3,0L-169.8-162.1z"/>
</g>
<g>
	<path class="st0" d="M118.6,52.2c-0.6,7-3.8,9.5-7.6,9.5c-4.3,0-7.7-3.2-7.7-12.2c0-12.6,7.7-30,7.7-30c2.9,6.7,5.1,13.6,6.7,20.7"
		/>
	<path class="st0" d="M110.9,69.8V45.6"/>
	<path class="st1" d="M123.8,53.9c4.6,0,8.2-3.7,8.2-8.2s-3.7-8.2-8.2-8.2s-8.2,3.7-8.2,8.2S119.2,53.9,123.8,53.9z"/>
	<path class="st0" d="M123.8,69.8V45.6"/>
	<path class="st0" d="M123.8,50.8l-2.5-3.2"/>
	<path class="st0" d="M128.1,46l-4.3,6.6"/>
	<polyline class="st2" points="49.5,42 71.1,15.2 93,42 	"/>
	<g>
		<path class="st0" d="M96.8,93.9c6.2-12.4,21.6-16.6,34.2-12.4"/>
		<path class="st0" d="M131.8,75.7c-16-5.3-35.8,1-42.1,17.5"/>
		<path class="st3" d="M104.7,95.1c4.9-7.2,14.6-9.5,22.6-6.9"/>
	</g>
	<g>
		<path class="st0" d="M33.4,73.3c0.7-0.2,1.4-0.4,2.1-0.7c21.7-8.3,45.7-8.3,62.4,2.7"/>
	</g>
	<g>
		<path class="st0" d="M37.1,79.5c17.7-6.4,38.8-8.2,56,0.5"/>
	</g>
	<g>
		<path class="st0" d="M40.6,86.3c15.1-4.8,31.9-6.2,47-0.7"/>
	</g>
	<polyline class="st4" points="87.3,69.8 87.3,38.7 55.2,38.7 55.2,66.7 	"/>
	<polyline class="st0" points="67.4,65.9 67.4,54.8 75.1,54.8 75.1,66.9 	"/>
</g>
</svg>
