<svg width="19" height="19" viewBox="0 0 19 19" fill="none" xmlns="http://www.w3.org/2000/svg">
<path fill-rule="evenodd" clip-rule="evenodd" d="M18.6328 9.53546C18.6328 14.6429 14.4238 18.8616 9.31641 18.8616C4.21875 18.8616 0 14.6429 0 9.53546C0 4.43781 4.20898 0.219055 9.31641 0.219055C14.4141 0.219055 18.6328 4.43781 18.6328 9.53546ZM1.34766 9.53546C1.34766 13.9593 4.90234 17.514 9.31641 17.514C13.7402 17.514 17.3047 13.9593 17.2949 9.53546C17.2852 5.1214 13.7305 1.56671 9.31641 1.56671C4.89258 1.56671 1.34766 5.1214 1.34766 9.53546ZM7.54335 12.1178C7.9372 12.6438 8.39865 13.2601 8.93853 13.9939C9.13715 14.2629 9.56205 14.2629 9.76069 13.9939C10.3006 13.2601 10.762 12.6438 11.1559 12.1178C12.9703 9.69455 13.3496 9.18793 13.3496 7.94562C13.3496 5.87454 11.5588 4.19562 9.34961 4.19562C7.14046 4.19562 5.34961 5.87454 5.34961 7.94562C5.34961 9.18793 5.72894 9.69455 7.54335 12.1178ZM11.0163 7.94562C11.0163 8.80857 10.2701 9.50812 9.34961 9.50812C8.42913 9.50812 7.68294 8.80857 7.68294 7.94562C7.68294 7.08267 8.42913 6.38312 9.34961 6.38312C10.2701 6.38312 11.0163 7.08267 11.0163 7.94562Z" fill="#0F3972"/>
</svg>
